M48
;DRILL file {KiCad (5.0.2)-1} date 1/5/2019 1:13:33 PM
;FORMAT={-:-/ absolute / metric / decimal}
FMAT,2
METRIC,TZ
T1C1.000
%
G90
G05
T1
X168.366Y-131.699
X170.906Y-131.699
X173.446Y-131.699
X175.986Y-131.699
T0
M30
